<svg width="1440" height="367" viewBox="0 0 1440 367" fill="none" xmlns="http://www.w3.org/2000/svg">
<path d="M1597 367.471C1333.8 185.071 927 140.089 743 255.089L856.5 367.471H1597Z" fill="#6CA60C"/>
<path d="M1069.5 365.383C806.3 182.983 399.5 138 215.5 253L329 365.383H1069.5Z" fill="#8EB64B"/>
<path d="M743 366C472.514 184.003 122.964 180.743 -18 201.863V366H743Z" fill="#A4CF5C"/>
<path d="M699 366.383C962.2 183.983 1302.33 180.716 1439.5 201.883V366.383H699Z" fill="#A4CF5C"/>
<path d="M48.3104 110.776C44.2696 142.373 36.0726 206.451 35.6108 209.989C70.246 220.564 104.881 220.564 147.598 209.989L132.974 110.776H48.3104Z" fill="#D2CFAC"/>
<path d="M91.604 59.3228L146.911 112.441H36.2972L91.604 59.3228Z" fill="#B9665B"/>
<line x1="94.4416" y1="95.8134" x2="106.731" y2="88.1323" stroke="#9C987B" stroke-width="5"/>
<line x1="94.779" y1="103.082" x2="102.778" y2="115.167" stroke="#9C987B" stroke-width="5"/>
<line x1="82.1052" y1="84.6479" x2="90.1046" y2="96.7328" stroke="#9C987B" stroke-width="5"/>
<line x1="73.7028" y1="109.255" x2="85.9925" y2="101.574" stroke="#9C987B" stroke-width="5"/>
<rect x="20.1084" y="12.6304" width="23.4272" height="96.8426" transform="rotate(-32.6244 20.1084 12.6304)" fill="#9C987B"/>
<rect width="23.4272" height="96.8426" transform="matrix(-0.506441 -0.862275 -0.862275 0.506441 194.208 50.5408)" fill="#9C987B"/>
<rect width="23.4272" height="96.8426" transform="matrix(0.846069 -0.533073 -0.533073 -0.846069 139.709 200.806)" fill="#9C987B"/>
<rect width="23.4272" height="96.8426" transform="matrix(0.532554 0.846396 0.846396 -0.532554 -11 151.043)" fill="#9C987B"/>
<circle cx="91.3498" cy="100.814" r="6.72092" fill="#C4C4C4"/>
</svg>
