<svg width="197" height="197" viewBox="0 0 197 197" fill="none" xmlns="http://www.w3.org/2000/svg">
<path d="M0 133.254C12.5879 118.755 45.5261 114.713 60.4217 114.505C131.921 84.0068 181.265 112.213 197 130.129C191.461 127.629 179.587 129.087 174.342 130.129C187.433 137.129 188.608 149.711 187.559 155.128C178.496 148.128 164.062 148.461 157.978 149.503C161.502 153.503 163.223 167.418 163.642 173.876C155.586 166.877 143.082 164.294 137.837 163.877V193.25L110.773 173.876L95.6677 197L77.4153 171.377L57.9042 193.25L60.4217 163.877C54.3796 163.877 39.8616 176.376 33.3578 182.626C32.3508 173.126 36.295 160.336 38.393 155.128C30.3367 154.628 13.6368 160.752 6.29393 163.877C5.79042 156.377 19.9308 143.253 27.0639 137.629C15.9866 133.129 4.40575 132.837 0 133.254Z" fill="#CA9545"/>
<path d="M155.418 85.8893C155.418 125.795 126.466 150.306 97.4773 150.306C68.489 150.306 39.5361 125.795 39.5361 85.8893C39.5361 35.7872 68.489 0 97.4773 0C126.466 0 155.418 45.9834 155.418 85.8893Z" fill="#F6CBA1"/>
<path d="M112.165 119.496C75.7463 133.877 51.3938 121.802 42.2627 102.931C46.8199 130.679 71.688 153.643 107.453 148.889C116.605 147.673 125.479 144.162 132.604 138.29C168.985 108.307 152.53 49.8823 143.489 40.218C151.165 65.608 155.208 80.5129 136.261 102.433C129.751 109.965 121.425 115.84 112.165 119.496Z" fill="#EDC298"/>
<path d="M82.0702 16.3599C60.5297 20.4498 59.9162 43.7399 62.3021 54.8737C62.3021 57.6003 68.437 64.0761 69.1186 54.8737C69.8003 45.6713 72.8678 40.5588 77.6394 36.4689C94.3401 20.4498 89.9093 16.3599 82.0702 16.3599Z" fill="#FEE0C6"/>
</svg>
