<svg width="66" height="66" viewBox="0 0 66 66" fill="none" xmlns="http://www.w3.org/2000/svg">
<ellipse cx="30.0158" cy="38.0014" rx="29.5871" ry="27.5698" fill="#C5CD29"/>
<path fill-rule="evenodd" clip-rule="evenodd" d="M20.2858 11.9572C23.3331 10.9688 26.6071 10.4316 30.0158 10.4316C46.3564 10.4316 59.603 22.7751 59.603 38.0014C59.603 48.1545 53.7131 57.0256 44.9436 61.8101C41.8963 62.7985 38.6223 63.3356 35.2136 63.3356C18.8731 63.3356 5.62646 50.9922 5.62646 35.7658C5.62646 25.6128 11.5163 16.7417 20.2858 11.9572Z" fill="#D6DD4F"/>
<mask id="mask0" mask-type="alpha" maskUnits="userSpaceOnUse" x="0" y="10" width="60" height="56">
<ellipse cx="30.0158" cy="38.0014" rx="29.5871" ry="27.5698" fill="#D6DD4F"/>
</mask>
<g mask="url(#mask0)">
<path d="M0.428711 43.0308L8.0254 34.648C10.491 32.0401 17.2614 26.9732 24.6182 27.5693C33.8142 28.3144 40.4113 34.0893 40.0115 43.2171C40.0115 47.5016 33.0145 58.4923 32.6147 61.4728C32.2948 63.8572 32.2149 65.3847 32.2149 65.3847" stroke="white" stroke-width="1.99913"/>
</g>
<mask id="mask1" mask-type="alpha" maskUnits="userSpaceOnUse" x="35" y="0" width="32" height="29">
<path d="M65.2008 14.3438C65.2008 21.7717 58.7211 27.8878 50.6072 27.8878C42.4932 27.8878 36.0135 21.7717 36.0135 14.3438C36.0135 6.9158 42.4932 0.799652 50.6072 0.799652C58.7211 0.799652 65.2008 6.9158 65.2008 14.3438Z" stroke="white" stroke-width="1.5993"/>
</mask>
<g mask="url(#mask1)">
<ellipse cx="30.0158" cy="37.6294" rx="29.5871" ry="27.5698" fill="white"/>
</g>
</svg>
