<svg width="480" height="325" viewBox="0 0 480 325" fill="none" xmlns="http://www.w3.org/2000/svg">
<g opacity="0.7">
<mask id="mask0" mask-type="alpha" maskUnits="userSpaceOnUse" x="0" y="0" width="480" height="325">
<rect width="480" height="325" fill="#C4C4C4"/>
</mask>
<g mask="url(#mask0)">
<path d="M0 253L147 335L105.5 344L0 286.5V253Z" fill="#DBDBDB"/>
<path d="M483 243.5L336 325.5L377.5 334L483 276.5V243.5Z" fill="#DBDBDB"/>
<rect x="14.833" width="921.592" height="523.252" transform="matrix(0.877835 -0.478963 0.877835 0.478963 -245.188 133.606)" fill="#007A3B" stroke="white" stroke-width="16.8973"/>
<line x1="-1.90395" y1="248.31" x2="796.491" y2="-200.258" stroke="white" stroke-width="16.8973"/>
<path fill-rule="evenodd" clip-rule="evenodd" d="M162.441 319.125C158.138 321.609 153.437 323.715 148.47 325.44L147.941 325.135L148.013 325.417L122.061 332.727L45.4792 288.517L57.4978 273.163L58.0169 273.222L57.6657 273.019C60.6542 270.151 64.3015 267.437 68.6047 264.953C95.7782 249.266 138.813 248.676 164.725 263.635C190.637 278.594 189.615 303.438 162.441 319.125Z" fill="#E55C1F"/>
<path d="M121.885 332.712L45.5904 288.667C61.78 306.804 52.1917 316.632 44.0968 321.912L10.9333 340.155C3.3576 344.322 3.15248 351.262 10.4775 355.576C17.7541 359.862 29.9501 359.397 36.3231 354.656C44.5963 348.501 55.1659 340.822 65.0108 334.132C80.9433 323.304 111.395 329.73 121.885 332.712Z" fill="#ECE7D1"/>
<path d="M121.792 332.735V327.157C163.835 321.99 180.511 296.525 183.594 284.439V287.375C185.355 317.175 143.763 328.38 121.792 332.735Z" fill="#C43C00"/>
<path fill-rule="evenodd" clip-rule="evenodd" d="M162.463 313.697C158.159 316.182 153.458 318.287 148.49 320.013L147.963 319.708L148.035 319.99L122.083 327.3L45.501 283.089L57.5196 267.736L58.0382 267.794L57.6869 267.592C60.6754 264.724 64.3228 262.01 68.6262 259.525C95.7997 243.838 138.834 243.248 164.746 258.207C190.659 273.166 189.636 298.01 162.463 313.697Z" fill="#E55C1F"/>
<path d="M121.906 327.284L45.6119 283.239C61.8015 301.376 52.2132 311.204 44.1183 316.484L10.9548 334.727C3.37908 338.894 3.17396 345.834 10.4989 350.148C17.7756 354.434 29.9716 353.969 36.3446 349.228C44.6178 343.074 55.1874 335.394 65.0322 328.704C80.9648 317.876 111.417 324.302 121.906 327.284Z" fill="#ECE7D1"/>
<path d="M45.5 289V283C54.5 291.5 54 299.833 54 304C53.6 298.4 48.1667 291.667 45.5 289Z" fill="#DAD1AC"/>
</g>
</g>
</svg>
