<svg width="1440" height="650" viewBox="0 0 1440 650" fill="none" xmlns="http://www.w3.org/2000/svg">
<g opacity="0.9">
<mask id="mask0" mask-type="alpha" maskUnits="userSpaceOnUse" x="480" y="325" width="480" height="325">
<rect x="480" y="325" width="480" height="325" fill="#C4C4C4"/>
</mask>
<g mask="url(#mask0)">
<rect width="1439.67" height="816.923" transform="matrix(0.877835 -0.478963 0.877835 0.478963 92 440.547)" fill="#99CB68"/>
<rect x="8.77835" width="1322.11" height="706.418" transform="matrix(0.877835 -0.478963 0.877835 0.478963 174.072 442.237)" fill="#99CB68" stroke="white" stroke-width="10"/>
<rect x="404.385" y="270.894" width="668.654" height="102" transform="rotate(28.0443 404.385 270.894)" fill="#72C05A"/>
<rect x="554.956" y="113" width="668.654" height="102" transform="rotate(28.0443 554.956 113)" fill="#72C05A"/>
<mask id="path-6-inside-1" fill="white">
<path d="M684.136 548.064C690.239 544.324 694.243 539.513 695.919 533.908C697.596 528.302 696.912 522.01 693.907 515.392C690.902 508.774 685.635 501.959 678.406 495.336C671.177 488.713 662.128 482.412 651.775 476.792C641.423 471.173 629.97 466.345 618.07 462.584C606.17 458.824 594.057 456.204 582.422 454.875C570.786 453.546 559.856 453.534 550.256 454.839C540.657 456.144 532.575 458.74 526.472 462.48L605.304 505.272L684.136 548.064Z"/>
</mask>
<path d="M684.136 548.064C690.239 544.324 694.243 539.513 695.919 533.908C697.596 528.302 696.912 522.01 693.907 515.392C690.902 508.774 685.635 501.959 678.406 495.336C671.177 488.713 662.128 482.412 651.775 476.792C641.423 471.173 629.97 466.345 618.07 462.584C606.17 458.824 594.057 456.204 582.422 454.875C570.786 453.546 559.856 453.534 550.256 454.839C540.657 456.144 532.575 458.74 526.472 462.48L605.304 505.272L684.136 548.064Z" stroke="white" stroke-width="20" mask="url(#path-6-inside-1)"/>
<rect x="406.459" y="450.117" width="461" height="102" transform="rotate(28.0443 406.459 450.117)" fill="#72C05A"/>
<rect x="0.125986" y="4.99809" width="382.715" height="169.965" transform="matrix(0.878368 0.477985 -0.853171 0.521632 455.561 415.342)" stroke="white" stroke-width="10"/>
<rect x="0.125986" y="4.99809" width="176.018" height="75.2444" transform="matrix(0.878368 0.477985 -0.853171 0.521632 461.008 512.331)" stroke="white" stroke-width="10"/>
</g>
</g>
<g opacity="0.7">
<mask id="mask1" mask-type="alpha" maskUnits="userSpaceOnUse" x="0" y="325" width="480" height="325">
<rect y="325" width="480" height="325" fill="#C4C4C4"/>
</mask>
<g mask="url(#mask1)">
<path d="M0 578L147 660L105.5 669L0 611.5V578Z" fill="#DBDBDB"/>
<path d="M483 568.5L336 650.5L377.5 659L483 601.5V568.5Z" fill="#DBDBDB"/>
<rect x="14.833" width="921.592" height="523.252" transform="matrix(0.877835 -0.478963 0.877835 0.478963 -245.188 458.606)" fill="#007A3B" stroke="white" stroke-width="16.8973"/>
<line x1="-1.90395" y1="573.31" x2="796.491" y2="124.742" stroke="white" stroke-width="16.8973"/>
<path fill-rule="evenodd" clip-rule="evenodd" d="M162.441 644.125C158.138 646.609 153.437 648.715 148.47 650.44L147.941 650.135L148.013 650.417L122.061 657.727L45.4792 613.517L57.4978 598.163L58.0169 598.222L57.6657 598.019C60.6542 595.151 64.3015 592.437 68.6047 589.953C95.7782 574.266 138.813 573.676 164.725 588.635C190.637 603.594 189.615 628.438 162.441 644.125Z" fill="#E55C1F"/>
<path d="M121.885 657.712L45.5904 613.667C61.78 631.804 52.1917 641.632 44.0968 646.912L10.9333 665.155C3.3576 669.322 3.15248 676.262 10.4775 680.576C17.7541 684.862 29.9501 684.397 36.3231 679.656C44.5963 673.501 55.1659 665.822 65.0108 659.132C80.9433 648.304 111.395 654.73 121.885 657.712Z" fill="#ECE7D1"/>
<path d="M121.792 657.735V652.157C163.835 646.99 180.511 621.525 183.594 609.439V612.375C185.355 642.175 143.763 653.38 121.792 657.735Z" fill="#C43C00"/>
<path fill-rule="evenodd" clip-rule="evenodd" d="M162.463 638.697C158.159 641.182 153.458 643.287 148.49 645.013L147.963 644.708L148.035 644.99L122.083 652.3L45.501 608.089L57.5196 592.736L58.0382 592.794L57.6869 592.592C60.6754 589.724 64.3228 587.01 68.6262 584.525C95.7997 568.838 138.834 568.248 164.746 583.207C190.659 598.166 189.636 623.01 162.463 638.697Z" fill="#E55C1F"/>
<path d="M121.906 652.284L45.6119 608.239C61.8015 626.376 52.2132 636.204 44.1183 641.484L10.9548 659.727C3.37908 663.894 3.17396 670.834 10.4989 675.148C17.7756 679.434 29.9716 678.969 36.3446 674.228C44.6178 668.074 55.1874 660.394 65.0322 653.704C80.9648 642.876 111.417 649.302 121.906 652.284Z" fill="#ECE7D1"/>
<path d="M45.5 614V608C54.5 616.5 54 624.833 54 629C53.6 623.4 48.1667 616.667 45.5 614Z" fill="#DAD1AC"/>
</g>
</g>
<g opacity="0.7">
<mask id="mask2" mask-type="alpha" maskUnits="userSpaceOnUse" x="0" y="0" width="480" height="325">
<rect width="480" height="325" fill="#C4C4C4"/>
</mask>
<g mask="url(#mask2)">
<rect width="1332.11" height="716.418" transform="matrix(0.877835 -0.478963 0.877835 0.478963 -544.476 232.861)" fill="#649362"/>
<rect x="6.52928" width="931.447" height="489.892" transform="matrix(0.877835 -0.478963 0.877835 0.478963 -281.312 194.139)" fill="#E09B4E" stroke="white" stroke-width="7.43793"/>
<path d="M30.2832 23.9619L450.526 261.976" stroke="white" stroke-width="7.43793"/>
<path d="M134.414 -31.8223L562.095 202.473" stroke="white" stroke-width="7.43793"/>
<path d="M234.826 -87.6064L666.226 146.689" stroke="white" stroke-width="7.43793"/>
<line x1="451.526" y1="58" x2="451.526" y2="155" stroke="#333333" stroke-width="5.05172"/>
<path opacity="0.3" d="M158.526 -60.0086V-105.474L449 61.2328V114.276L158.526 -60.0086Z" fill="black"/>
</g>
</g>
<g opacity="0.7">
<mask id="mask3" mask-type="alpha" maskUnits="userSpaceOnUse" x="480" y="0" width="480" height="325">
<rect x="480" width="480" height="325" fill="#C4C4C4"/>
</mask>
<g mask="url(#mask3)">
<rect width="1332.11" height="716.418" transform="matrix(0.877835 -0.478963 0.877835 0.478963 162 154.032)" fill="#E09B4E"/>
<rect x="6.52928" width="1135.72" height="607.362" transform="matrix(0.877835 -0.478963 0.877835 0.478963 289.798 136.66)" fill="#E09B4E" stroke="white" stroke-width="7.43793"/>
<mask id="path-32-inside-2" fill="white">
<path d="M798.062 409.789C828.028 391.425 851.617 369.937 867.482 346.554C883.347 323.171 891.176 298.35 890.524 273.509C889.872 248.667 880.751 224.291 863.681 201.773C846.611 179.254 821.928 159.034 791.039 142.267C760.151 125.5 723.662 112.515 683.657 104.052C643.652 95.5889 600.914 91.8146 557.884 92.9442C514.853 94.0739 472.372 100.085 432.866 110.636C393.36 121.186 357.603 136.068 327.637 154.432L562.85 282.111L798.062 409.789Z"/>
</mask>
<path d="M798.062 409.789C828.028 391.425 851.617 369.937 867.482 346.554C883.347 323.171 891.176 298.35 890.524 273.509C889.872 248.667 880.751 224.291 863.681 201.773C846.611 179.254 821.928 159.034 791.039 142.267C760.151 125.5 723.662 112.515 683.657 104.052C643.652 95.5889 600.914 91.8146 557.884 92.9442C514.853 94.0739 472.372 100.085 432.866 110.636C393.36 121.186 357.603 136.068 327.637 154.432L562.85 282.111L798.062 409.789Z" stroke="white" stroke-width="14.88" mask="url(#path-32-inside-2)"/>
<mask id="path-33-inside-3" fill="white">
<path d="M777.456 201.136C784.822 196.622 790.621 191.34 794.521 185.592C798.42 179.844 800.345 173.743 800.185 167.637C800.024 161.53 797.782 155.538 793.586 150.003C789.39 144.467 783.323 139.497 775.73 135.375C768.137 131.254 759.168 128.062 749.334 125.982C739.5 123.901 728.994 122.973 718.417 123.251C707.839 123.529 697.397 125.007 687.686 127.6C677.974 130.193 669.185 133.852 661.819 138.366L719.637 169.751L777.456 201.136Z"/>
</mask>
<path d="M777.456 201.136C784.822 196.622 790.621 191.34 794.521 185.592C798.42 179.844 800.345 173.743 800.185 167.637C800.024 161.53 797.782 155.538 793.586 150.003C789.39 144.467 783.323 139.497 775.73 135.375C768.137 131.254 759.168 128.062 749.334 125.982C739.5 123.901 728.994 122.973 718.417 123.251C707.839 123.529 697.397 125.007 687.686 127.6C677.974 130.193 669.185 133.852 661.819 138.366L719.637 169.751L777.456 201.136Z" stroke="white" stroke-width="14.88" mask="url(#path-33-inside-3)"/>
<line x1="672.08" y1="138.56" x2="438.08" y2="209.56" stroke="white" stroke-width="7.44"/>
<path d="M777 197.5L703.335 351.65" stroke="white" stroke-width="7.44"/>
<line x1="583" y1="190" x2="583" y2="289" stroke="#515151" stroke-width="8" stroke-linecap="round"/>
<path d="M571 173V100L662 158.5V235.5L571 173Z" fill="#C4C4C4"/>
<line x1="614.894" y1="168.548" x2="584.548" y2="188.802" stroke="#515151" stroke-width="8" stroke-linecap="round"/>
</g>
</g>
<g opacity="0.7">
<mask id="mask4" mask-type="alpha" maskUnits="userSpaceOnUse" x="960" y="0" width="480" height="325">
<rect x="960" width="480" height="325" fill="#C4C4C4"/>
</mask>
<g mask="url(#mask4)">
<rect width="1110.82" height="639.333" transform="matrix(0.877835 -0.478963 0.877835 0.478963 712.079 21.0801)" fill="#15B170"/>
<rect width="1154.1" height="685.062" rx="39.6145" transform="matrix(0.877835 -0.478963 0.877835 0.478963 668.523 22.7695)" fill="#580F01"/>
<rect width="1154.1" height="685.062" rx="39.6145" transform="matrix(0.877835 -0.478963 0.877835 0.478963 662 144.24)" fill="#580F01"/>
<path d="M682.555 145.327L688.908 23.8672C863.81 123.277 1217.13 324.115 1231.18 332.188C1245.23 340.26 1258.96 341.282 1264.07 340.783V460.748C1250.91 462.243 1236.66 457.634 1231.18 455.142L682.555 145.327Z" fill="#400A00"/>
<mask id="mask5" mask-type="alpha" maskUnits="userSpaceOnUse" x="688" y="-519" width="1575" height="860">
<rect width="1154.1" height="685.062" rx="39.6145" transform="matrix(0.877835 -0.478963 0.877835 0.478963 667.98 23.1548)" fill="#580F01"/>
</mask>
<g mask="url(#mask5)">
<rect width="115.035" height="119.555" transform="matrix(0.866044 0.499967 -0.866044 0.499967 1271.56 238.756)" fill="#E2D9C3"/>
</g>
<rect width="1042.56" height="571.676" transform="matrix(0.877835 -0.478963 0.877835 0.478963 766.388 22.7275)" fill="#12A266"/>
<path d="M778.975 24.2406L1677.78 -466.083" stroke="#077B4B" stroke-width="14.9489"/>
<circle r="28.5474" transform="matrix(0.866044 0.499967 -0.866044 0.499967 1266.05 288.979)" fill="#312F30"/>
<path d="M1875.5 358.499L1366.56 82.4723C1363.93 81.0454 1360.65 81.7316 1358.82 84.094C1356.79 86.6992 1357.5 90.4907 1360.34 92.1804L1855 386.999L1875.5 358.499Z" fill="#D7AC75"/>
<ellipse cx="1361.8" cy="85.9555" rx="5.46555" ry="4.30531" transform="rotate(-50.4031 1361.8 85.9555)" fill="#F8D2A2"/>
</g>
</g>
<g opacity="0.7">
<mask id="mask6" mask-type="alpha" maskUnits="userSpaceOnUse" x="960" y="325" width="480" height="325">
<rect x="960" y="325" width="480" height="325" fill="#C4C4C4"/>
</mask>
<g mask="url(#mask6)">
</g>
<mask id="mask7" mask-type="alpha" maskUnits="userSpaceOnUse" x="960" y="325" width="480" height="325">
<rect x="960" y="325" width="480" height="325" fill="#C4C4C4"/>
</mask>
<g mask="url(#mask7)">
<rect width="1332.11" height="716.418" transform="matrix(0.877835 -0.478963 0.877835 0.478963 454 597.032)" fill="#E05A5B"/>
<rect x="6.52928" width="931.447" height="489.892" transform="matrix(0.877835 -0.478963 0.877835 0.478963 718.274 560.995)" fill="#A9B453" stroke="white" stroke-width="7.43793"/>
<path d="M1576.48 493.176L1219.98 696.175M1442.98 388.675L1133.98 565.675M1308.48 306.676L958.5 508" stroke="white" stroke-width="7.43793"/>
<path d="M997.5 484.5L1296.48 655.676" stroke="white" stroke-width="7.43793"/>
<path d="M1233.3 276.57L1664.7 510.865" stroke="white" stroke-width="7.43793"/>
<path opacity="0.3" d="M1118.53 298.716V219.526L1440.5 416.233V503L1118.53 298.716Z" fill="black"/>
</g>
</g>
</svg>
