<svg width="741" height="111" viewBox="0 0 741 111" fill="none" xmlns="http://www.w3.org/2000/svg">
<path d="M611.299 85H627.059V69.08H636.899C648.819 69.08 658.659 59.16 658.659 47.08C658.659 34.92 648.739 25 636.579 25H611.299V85ZM627.059 55.48V38.28H636.819C641.619 38.28 645.459 42.12 645.459 46.92C645.459 51.72 641.619 55.48 636.819 55.48H627.059Z" fill="#454FCB"/>
<path d="M534.608 80.1091L550.271 82.4674L554.845 52.0897L568.309 68.5174L585.946 56.6914L581.361 87.1482L597.024 89.5064L605.957 30.1751L598.916 29.1151L571.477 47.4745L550.581 21.8378L543.54 20.7778L534.608 80.1091Z" fill="#E9622A"/>
<path d="M471.322 80H487.082V65.36L490.842 61.52L509.162 80H531.722L501.962 50.16L532.202 20H510.122L487.082 42.88V20H471.322V80Z" fill="#454FCB"/>
<path d="M406.399 83.3819L421.962 81.4684L424.578 73.2476L448.954 70.2503L453.564 77.5826L469.206 75.6592L433.854 19.5541L426.867 20.4133L406.399 83.3819ZM429.071 59.3151L433.574 45.462L441.22 57.8213L429.071 59.3151Z" fill="#33B3A6"/>
<path d="M654.399 83.3819L669.962 81.4684L672.578 73.2476L696.954 70.2503L701.564 77.5826L717.206 75.6592L681.854 19.5541L674.867 20.4133L654.399 83.3819ZM677.071 59.3151L681.574 45.462L689.22 57.8213L677.071 59.3151Z" fill="#33B3A6"/>
<path d="M348.322 77.3408L364.013 78.8126L365.5 62.9621L375.217 63.8736L382.97 80.5906L401.051 82.2865L390.418 59.4337C395.093 55.8546 398.419 50.3813 399.016 44.0092C400.152 31.9024 391.202 21.0993 379.095 19.9638L353.925 17.603L348.322 77.3408ZM366.77 49.4216L368.376 32.2967L378.094 33.2082C382.873 33.6564 386.337 37.8382 385.889 42.6173C385.441 47.3963 381.266 50.7813 376.487 50.333L366.77 49.4216Z" fill="#E9622A"/>
<path d="M307.906 83.8798L344.164 75.212L341.169 62.685L320.239 67.6885L317.672 56.951L336.19 52.5241L333.103 39.6081L314.585 44.0349L312.315 34.5424L333.246 29.5389L330.214 16.8563L293.955 25.524L307.906 83.8798Z" fill="#454FCB"/>
<path d="M246.298 82H262.058V66.08H271.898C283.818 66.08 293.658 56.16 293.658 44.08C293.658 31.92 283.738 22 271.578 22H246.298V82ZM262.058 52.48V35.28H271.818C276.618 35.28 280.458 39.12 280.458 43.92C280.458 48.72 276.618 52.48 271.818 52.48H262.058Z" fill="#E9622A"/>
<path d="M156.866 84.6L209.523 79.7468L208.077 64.0533L182.585 66.4028L203.937 20.0074L151.28 24.8606L152.734 40.6337L178.225 38.2842L156.866 84.6Z" fill="#454FCB"/>
<path d="M133.093 84.2446L148.778 82.7178L142.966 23L127.28 24.5269L133.093 84.2446Z" fill="#33B3A6"/>
<path d="M88.6795 83.9223C101.565 85.9225 113.687 77.1987 115.712 64.1549L121.283 28.2647L105.63 25.835L100.096 61.488C99.4333 65.7568 95.415 68.6952 91.1461 68.0326C86.8772 67.3699 83.9388 63.3516 84.6015 59.0828L90.1359 23.4298L74.4834 21L68.9121 56.8902C66.8873 69.9339 75.6357 81.8975 88.6795 83.9223Z" fill="#E9622A"/>
<path d="M29.0178 74.5065C34.9318 75.5191 40.4849 74.8466 45.2673 72.987L48.731 77.8818L59.1395 79.6639L61.0702 68.388L57.8161 63.6915C61.0819 59.7866 63.2843 55.4562 64.2024 50.0942C66.9972 33.7718 56.8855 18.4049 39.6957 15.4616C21.7961 12.3969 7.85778 23.6459 5.06304 39.9684C2.2683 56.2908 12.8531 71.7388 29.0178 74.5065ZM32.243 58.9882C24.4366 57.6516 19.4586 50.2249 20.7412 42.734C22.0913 34.8487 29.1507 29.6454 37.0359 30.9956C45.1577 32.3862 50.084 39.6416 48.7338 47.5269C48.5718 48.4731 48.2656 49.3135 47.9594 50.1539L42.222 41.9479L29.5965 50.7433L35.6223 59.161C34.6356 59.2355 33.2681 59.1637 32.243 58.9882Z" fill="#454FCB"/>
<path d="M726.119 19.6208L740.09 20.5136L737.004 68.8151L723.032 67.9223L726.119 19.6208ZM722.353 78.5487C722.6 74.6845 725.897 71.7208 729.788 71.9694C733.679 72.218 736.572 75.5773 736.325 79.4415C736.078 83.3056 732.786 86.1815 728.895 85.9329C725.005 85.6843 722.106 82.4128 722.353 78.5487Z" fill="#454FCB"/>
</svg>
