<svg width="178" height="161" viewBox="0 0 178 161" fill="none" xmlns="http://www.w3.org/2000/svg">
<ellipse cx="89.2267" cy="80.5" rx="88.7736" ry="80.5" fill="#E5E6DE"/>
<path d="M95.4783 122C106.148 122 117.038 117.49 124.738 109.79L109.338 94.61C105.928 98.13 101.088 100.11 95.4783 100.11C84.2583 100.11 76.1183 91.97 76.1183 80.75C76.1183 69.53 84.2583 61.39 95.4783 61.39C100.978 61.39 105.708 63.26 109.338 66.78L124.518 51.49C117.038 44.01 106.808 39.5 95.4783 39.5C72.7083 39.5 54.2283 57.98 54.2283 80.75C54.2283 103.52 72.7083 122 95.4783 122Z" fill="#E9622A"/>
</svg>
