<svg width="393" height="114" viewBox="0 0 393 114" fill="none" xmlns="http://www.w3.org/2000/svg">
<path d="M299.536 29.5964C294.186 27.4935 229.507 27.7606 223.143 28.0728C209.43 28.75 195.717 29.4271 182.004 30.1042C173.608 30.518 165.203 30.9356 156.826 31.5788C161.852 30.7098 169.999 29.0697 181.53 26.9744C191.803 25.1048 188.213 25.8835 204.094 23.0697C245.134 15.7944 255.126 13.0746 261.804 11.062C269.463 8.74854 275.512 6.53284 279.309 5.06951C283.345 2.38359 286.888 -0.287276 285.847 0.0249527C283.359 0.762263 259.012 6.33723 247.856 8.09022C221.111 12.2921 228.714 12.2169 183.576 20.4402C182.323 20.6696 173.256 22.3173 162.504 26.3086C161.477 26.6885 150.011 30.9694 150.636 32.0566C150.645 32.0754 150.668 32.0904 150.683 32.1055C150.288 32.1431 149.899 32.1732 149.505 32.2108C149.833 32.3387 150.162 32.4591 150.495 32.5757C150.105 32.5795 149.72 32.587 149.331 32.5907C149.345 32.5719 149.364 32.5494 149.373 32.5268C149.824 31.1951 137.781 27.58 136.702 27.2603C125.411 23.901 116.161 23.0509 114.879 22.9342C68.8126 18.7022 76.3684 17.8972 49.177 16.163C37.834 15.4408 12.806 11.837 10.2249 11.2727C9.14077 11.0357 13.0782 13.7103 17.4991 16.3511C21.4975 17.6 27.8378 19.4621 35.8019 21.2414C42.7429 22.795 53.0816 24.77 94.934 28.3888C111.13 29.7882 107.446 29.3067 117.93 30.2697C129.695 31.3494 138.035 32.2936 143.16 32.7074C134.745 32.9444 126.344 33.4447 117.949 33.9487C104.24 34.7726 90.5273 35.5964 76.819 36.4165C70.4599 36.7927 6.24516 44.0642 1.26586 47.1263C-1.73299 48.9733 1.21893 49.3081 3.69216 49.5113C7.00074 49.7784 39.0166 48.5671 51.9975 46.2498C54.926 45.7269 118.01 40.5432 129.752 38.651C137.045 37.4773 144.614 36.1983 150.514 32.5719C156.652 34.7274 163.922 35.0359 170.933 35.2879C182.835 35.7168 246.115 33.7908 249.091 33.9412C262.278 34.6071 294.205 32.4252 297.452 31.8647C299.874 31.4472 302.76 30.8641 299.536 29.5964Z" fill="#0D2040"/>
<path d="M154.062 49.1727L152.255 33.2377C152.828 32.7638 153.128 32.0189 153.142 30.9995C153.142 30.8791 153.147 30.7512 153.152 30.6195C153.189 29.1336 153.255 26.3725 150.096 25.9399C148.604 25.7367 147.234 26.1806 146.337 27.1624C145.305 28.2947 145.131 29.9349 145.915 31.1537C146.511 32.0791 147.548 32.8691 148.918 33.4296C149.101 33.5048 149.486 33.6591 149.96 33.7418L151.73 49.3382L154.062 49.1727ZM147.994 30.296C147.614 29.7054 147.712 28.8364 148.224 28.2797C148.529 27.9449 148.923 27.7794 149.392 27.7794C149.491 27.7794 149.59 27.7869 149.693 27.8019C150.683 27.9374 150.843 28.8477 150.8 30.5894C150.796 30.7286 150.796 30.864 150.791 30.9882C150.782 31.7631 150.584 31.9211 150.589 31.9249C150.584 31.9249 150.425 31.9474 149.979 31.7631C149.336 31.496 148.463 31.0258 147.994 30.296Z" fill="black"/>
<path d="M102.733 66.5899C106.746 65.1604 110.425 65.4087 114.41 63.934C118.493 62.4218 122.867 59.1679 127.142 58.0469C129.573 57.4111 135.552 57.2644 137.875 56.4105C140.461 55.4625 139.212 53.7358 141.601 52.502C150.175 48.0819 160.913 47.6229 171.097 47.2957C187.752 46.7615 205.192 46.3515 220.191 52.1785C223.922 53.6268 227.502 55.4663 231.562 56.1509C234.87 56.7077 238.296 56.4631 241.666 56.2186C271.654 54.0255 301.643 51.8286 331.627 49.6355C335.911 41.7395 338.694 36.2473 342.012 28.1971C342.392 27.2717 345.1 18.7889 349.286 18.2284C352.102 17.8522 355.749 17.6754 358.457 18.0779C355.636 26.9896 348.39 49.3759 349.052 51.5202C349.568 53.1979 351.159 55.7183 352.337 57.1628C357.457 63.4337 360.827 68.9485 365.947 75.2194C360.813 77.6006 358.851 78.4846 353.276 80.1097C347.494 73.4062 344.692 67.2369 338.258 60.9246C337.343 60.0293 336.277 58.7842 334.973 58.2914C333.288 57.6556 327.445 58.5622 325.62 58.8556C296.49 63.5579 263.812 68.3015 233.134 71.4576C229.999 77.0664 225.911 83.9693 219.29 87.069C218.187 87.5844 210.997 90.5562 204.272 92.3355C196.979 94.2653 170.951 98.7306 165.32 99.4829C127.761 104.501 142.577 104.159 105.014 104.561C98.2516 104.633 90.0106 104.283 83.4263 103.057C78.7802 102.191 70.1967 100.626 67.5686 97.192C64.1286 92.6967 71.6093 90.1763 75.4482 86.5048C83.5671 78.7517 91.0337 70.7542 102.733 66.5899Z" fill="#0D2040"/>
<path d="M194.239 104.084C190.709 105.035 187.194 106.025 183.656 106.969C183.75 104.693 183.876 102.346 183.219 100.122C182.525 97.7825 180.906 95.5593 178.329 94.2615C177.56 93.874 176.851 94.8483 177.621 95.2358C182.708 97.8013 182.389 103.121 182.239 107.341C176.424 108.869 170.548 110.242 164.508 111.092C155.643 112.344 146.623 112.698 137.627 112.687C137.547 110.573 137.031 108.537 135.989 106.581C134.998 104.723 133.464 102.932 131.122 102.052C130.305 101.744 129.592 102.718 130.413 103.026C132.549 103.828 133.891 105.453 134.773 107.149C135.698 108.929 136.144 110.772 136.223 112.683C135.604 112.679 134.984 112.675 134.365 112.668C128.653 112.608 122.947 112.423 117.245 112.235C116.339 112.205 116.339 113.334 117.245 113.364C127.415 113.699 137.608 114.026 147.787 113.642C157.947 113.255 168.014 112.085 177.747 109.674C183.412 108.27 189.006 106.687 194.623 105.167C195.468 104.941 195.102 103.85 194.239 104.084Z" fill="#0D2040"/>
<path d="M68.128 95.0893C73.7878 93.8629 79.6259 92.6178 85.5438 92.9789C88.3315 93.1482 90.9971 93.7614 93.5314 94.698C95.8873 95.5633 98.1258 96.6128 100.468 97.5043C102.687 98.3507 105.006 99.0617 107.456 99.3213C110.459 99.6373 113.467 99.2649 116.443 98.9225C121.812 98.3018 127.204 97.7902 132.591 97.2937C143.545 96.2855 154.545 95.4466 165.419 93.9607C170.741 93.2347 176.016 92.3319 181.319 91.5306C187.11 90.6579 192.991 90.1538 198.758 89.1908C209.444 87.4039 218.802 82.871 227.151 77.3675C228.184 76.6866 229.197 75.9906 230.202 75.2872C230.887 74.8094 229.887 74.0119 229.207 74.4897C221.172 80.1249 212.124 85.1995 201.701 87.4716C195.961 88.7206 190.001 89.1532 184.158 89.9732C178.902 90.7143 173.688 91.6134 168.441 92.3883C157.582 93.9984 146.577 94.8899 135.609 95.8868C130.226 96.3758 124.839 96.8724 119.47 97.4517C116.635 97.7564 113.796 98.189 110.938 98.2943C108.188 98.3959 105.588 98.0047 103.039 97.1884C98.2666 95.6573 94.0429 93.1331 88.951 92.2454C83.324 91.2635 77.514 92.0347 71.9997 93.1181C70.5824 93.3965 69.1698 93.6974 67.7572 94.0059C66.8796 94.1902 67.2504 95.2774 68.128 95.0893Z" fill="#E5E6DE"/>
<path d="M233.144 61.4852C235.777 61.2858 238.405 61.0865 241.038 60.8871C247.354 60.4094 253.671 59.9278 259.993 59.4501C267.633 58.8708 275.278 58.2915 282.918 57.7122C289.521 57.2119 296.124 56.7115 302.728 56.2075C305.928 55.963 309.133 55.7448 312.329 55.4777C312.372 55.4739 312.414 55.4702 312.461 55.4664C313.357 55.3987 313.362 54.2702 312.461 54.3379C309.828 54.5373 307.2 54.7366 304.567 54.936C298.25 55.4137 291.934 55.8952 285.612 56.373C277.972 56.9523 270.327 57.5316 262.687 58.1109C256.083 58.6112 249.48 59.1116 242.877 59.6156C239.677 59.8601 236.471 60.0783 233.275 60.3454C233.233 60.3492 233.191 60.3529 233.144 60.3567C232.252 60.4244 232.243 61.5529 233.144 61.4852Z" fill="#E5E6DE"/>
<path d="M101.415 73.1806C106 71.3148 111.519 71.0101 115.856 68.8207C117.55 67.9668 119.023 66.8383 120.849 66.1687C122.37 65.6119 124.059 65.3975 125.72 65.1868C129.86 64.6677 133.999 64.1486 138.143 63.6294C139.452 63.4639 140.776 63.2984 142.015 62.9373C143.052 62.6363 144.014 62.2075 145.042 61.884C148.238 60.8833 151.814 61.0037 155.258 61.1429C155.897 61.1692 156.549 61.1956 157.131 61.3987C158.914 62.0232 159.172 63.8514 159.299 65.3599C159.679 69.8477 161.167 74.2791 163.654 78.3455C164.705 80.0647 165.869 82.2691 164.231 83.6798C163.368 84.4208 162.002 84.6353 160.735 84.8008C153.142 85.7864 152.5 85.3125 143 86.5C139 87 133.5 87.5 128 87.5C124.692 87.8837 120.295 88.1187 116.973 88.3895C112.913 88.7205 109.276 89 104.5 89C101.412 89.1429 98.5525 89.1268 95.4738 88.8748C93.3526 88.7017 90.4288 88.0434 89.1054 86.6215C87.5285 84.9249 89.4104 83.4465 90.6541 81.908C93.423 78.481 96.6987 75.0991 101.415 73.1806Z" fill="#E5E6DE"/>
<path d="M112.533 90.0748C112.144 90.0748 111.829 89.819 111.829 89.5106V67.316C111.829 67.0075 112.144 66.7517 112.533 66.7517C112.918 66.7517 113.237 67.0075 113.237 67.316V89.5106C113.237 89.8228 112.923 90.0748 112.533 90.0748Z" fill="#0D2040"/>
<path d="M137.171 88.57C136.913 88.57 136.702 88.4007 136.702 88.1938V59.6042C136.702 59.3973 136.913 59.228 137.171 59.228C137.43 59.228 137.641 59.3973 137.641 59.6042V88.1938C137.641 88.4007 137.43 88.57 137.171 88.57Z" fill="#0D2040"/>
<path d="M349.517 23.6454C352.215 22.9043 354.947 22.1444 357.786 21.8397C360.771 21.52 363.784 21.8473 366.782 21.7231C372.231 21.4974 377.412 20.004 382.758 19.2592C385.7 18.8491 388.718 18.7062 391.656 19.2027C392.538 19.3532 392.918 18.2661 392.031 18.1156C386.601 17.1977 381.176 18.3037 375.896 19.3231C373.198 19.8422 370.481 20.3576 367.707 20.5457C364.694 20.7488 361.667 20.4291 358.659 20.6397C355.374 20.8692 352.243 21.7081 349.146 22.562C348.292 22.7915 348.658 23.8824 349.517 23.6454Z" fill="#E5E6DE"/>
<path d="M350.92 64.9911C354.895 62.5497 360.16 62.7115 364.891 63.0501C367.716 63.2532 370.555 63.5128 373.395 63.336C376.037 63.1704 378.435 62.4933 380.917 61.8049C383.386 61.1203 386.221 60.3867 388.713 61.4024C389.52 61.7297 390.233 60.7591 389.421 60.4281C384.517 58.4306 379.369 61.5679 374.511 62.1134C368.997 62.7341 363.478 61.3911 357.95 61.8162C355.186 62.0306 352.44 62.6438 350.206 64.0168C349.502 64.4532 350.202 65.435 350.92 64.9911Z" fill="#E5E6DE"/>
</svg>
